<svg id="poznaj_strefy" data-name="poznaj strefy" xmlns="http://www.w3.org/2000/svg" viewBox="0 0 209.715 43.342">
  <defs>
    <style>
      .cls-1 {
        fill: #6d6e71;
      }

      .cls-2 {
        fill: #ffca28;
      }

      .cls-3 {
        fill: #fb8c00;
      }

      .cls-4 {
        fill: #7cb342;
      }

      .cls-5 {
        fill: #c0ca33;
      }
    </style>
  </defs>
  <g id="Isolation_Mode" data-name="Isolation Mode">
    <g id="Group_1824" data-name="Group 1824">
      <path id="Path_11961" data-name="Path 11961" class="cls-1" d="M3.076,10.49v5.26H0V.821H5.824a7.044,7.044,0,0,1,2.363.369A5.1,5.1,0,0,1,9.951,2.22a4.4,4.4,0,0,1,1.1,1.569,5.063,5.063,0,0,1,.379,1.974,4.859,4.859,0,0,1-.379,1.959,4.045,4.045,0,0,1-1.1,1.487,5.057,5.057,0,0,1-1.764.948,7.724,7.724,0,0,1-2.363.333ZM3.076,8H5.824a3.489,3.489,0,0,0,1.133-.164,2.075,2.075,0,0,0,.779-.456,1.783,1.783,0,0,0,.446-.7,2.683,2.683,0,0,0,.144-.892,3.006,3.006,0,0,0-.144-.928,2.2,2.2,0,0,0-.446-.79,2.152,2.152,0,0,0-.779-.548,2.852,2.852,0,0,0-1.133-.205H3.076Z"/>
      <path id="Path_11962" data-name="Path 11962" class="cls-1" d="M25.809,8.624a9.517,9.517,0,0,1-.461,3.071,6.644,6.644,0,0,1-1.3,2.3,5.644,5.644,0,0,1-2,1.451,6.776,6.776,0,0,1-5.147,0A5.749,5.749,0,0,1,14.883,14a6.686,6.686,0,0,1-1.317-2.3,9.327,9.327,0,0,1-.472-3.071V7.968A9.423,9.423,0,0,1,13.561,4.9a6.761,6.761,0,0,1,1.307-2.317,5.638,5.638,0,0,1,2.01-1.461,6.776,6.776,0,0,1,5.147,0,5.638,5.638,0,0,1,2.01,1.461A6.769,6.769,0,0,1,25.342,4.9a9.437,9.437,0,0,1,.467,3.066Zm-3.117-.677a6.283,6.283,0,0,0-.841-3.568,2.74,2.74,0,0,0-2.4-1.22,2.74,2.74,0,0,0-2.4,1.22,6.283,6.283,0,0,0-.841,3.568v.677a8.673,8.673,0,0,0,.221,2.066,4.6,4.6,0,0,0,.636,1.508,2.759,2.759,0,0,0,1.02.923,2.971,2.971,0,0,0,1.384.313,2.708,2.708,0,0,0,2.389-1.23,6.4,6.4,0,0,0,.831-3.579Z"/>
      <path id="Path_11963" data-name="Path 11963" class="cls-1" d="M31.069,13.279H38.6V15.75H27.224v-1.8L34.607,3.313H27.234V.821h11.2V2.584Z"/>
      <path id="Path_11964" data-name="Path 11964" class="cls-1" d="M52.674,15.75H49.6L43.61,5.927V15.75H40.534V.821H43.61l6,9.844V.821h3.066Z"/>
      <path id="Path_11965" data-name="Path 11965" class="cls-1" d="M63.974,12.674H58.581L57.555,15.75H54.284L59.842.821h2.851l5.588,14.93H65.01Zm-4.563-2.492h3.732L61.267,4.594Z"/>
      <path id="Path_11966" data-name="Path 11966" class="cls-1" d="M75.694.821H78.77V11.157a5.089,5.089,0,0,1-.379,2.01,4.349,4.349,0,0,1-1.051,1.513,4.6,4.6,0,0,1-1.59.948,5.85,5.85,0,0,1-1.984.328,6.955,6.955,0,0,1-2.015-.277,4.325,4.325,0,0,1-1.584-.846A3.866,3.866,0,0,1,69.126,13.4a5.157,5.157,0,0,1-.374-2.056h3.1a3.322,3.322,0,0,0,.133,1.015,1.629,1.629,0,0,0,.384.662,1.422,1.422,0,0,0,.605.358,2.7,2.7,0,0,0,.794.108,1.763,1.763,0,0,0,1.4-.6,2.556,2.556,0,0,0,.523-1.723Z"/>
      <path id="Path_11967" data-name="Path 11967" class="cls-1" d="M94.377,11.833a2.059,2.059,0,0,0-.113-.7,1.366,1.366,0,0,0-.436-.58,3.992,3.992,0,0,0-.893-.523,14.019,14.019,0,0,0-1.471-.543,18.084,18.084,0,0,1-1.933-.738,7.092,7.092,0,0,1-1.589-.969,4.309,4.309,0,0,1-1.077-1.287,3.517,3.517,0,0,1-.395-1.7,3.623,3.623,0,0,1,.405-1.708,3.844,3.844,0,0,1,1.138-1.317A5.594,5.594,0,0,1,89.757.918a7.715,7.715,0,0,1,2.22-.3,7.006,7.006,0,0,1,2.256.344,5.18,5.18,0,0,1,1.733.958,4.239,4.239,0,0,1,1.107,1.461,4.368,4.368,0,0,1,.39,1.851H94.387a2.493,2.493,0,0,0-.148-.872,1.776,1.776,0,0,0-.457-.687,2.129,2.129,0,0,0-.769-.446,3.356,3.356,0,0,0-1.087-.159,3.685,3.685,0,0,0-1.051.133,2.127,2.127,0,0,0-.738.369,1.549,1.549,0,0,0-.441.554,1.578,1.578,0,0,0-.148.677A1.452,1.452,0,0,0,90.3,6.035a8.485,8.485,0,0,0,2.209.928,14.526,14.526,0,0,1,2.148.841A6.4,6.4,0,0,1,96.208,8.85a4,4,0,0,1,.938,1.313,4.087,4.087,0,0,1,.318,1.651,3.862,3.862,0,0,1-.385,1.753,3.619,3.619,0,0,1-1.092,1.3,5.164,5.164,0,0,1-1.707.81,8.213,8.213,0,0,1-2.23.282,8.666,8.666,0,0,1-1.477-.128,7.107,7.107,0,0,1-1.41-.4,6.123,6.123,0,0,1-1.246-.667,4.589,4.589,0,0,1-1-.943,4.251,4.251,0,0,1-.667-1.235,4.641,4.641,0,0,1-.241-1.533H89.1a2.755,2.755,0,0,0,.215,1.148,1.956,1.956,0,0,0,.6.764,2.484,2.484,0,0,0,.928.426,5.084,5.084,0,0,0,1.21.133,3.71,3.71,0,0,0,1.036-.128,2.119,2.119,0,0,0,.728-.354,1.4,1.4,0,0,0,.426-.538A1.65,1.65,0,0,0,94.377,11.833Z"/>
      <path id="Path_11968" data-name="Path 11968" class="cls-1" d="M110.783,3.313H106.21V15.75h-3.076V3.313H98.622V.821h12.161Z"/>
      <path id="Path_11969" data-name="Path 11969" class="cls-1" d="M118.063,10.285h-2.451v5.465h-3.076V.821h5.548a8.478,8.478,0,0,1,2.317.292,4.865,4.865,0,0,1,1.733.861,3.78,3.78,0,0,1,1.087,1.41,4.7,4.7,0,0,1,.379,1.948,5.4,5.4,0,0,1-.185,1.472,3.835,3.835,0,0,1-1.374,2.045,5.5,5.5,0,0,1-1.107.656l3.23,6.1v.144h-3.3Zm-2.451-2.492h2.481a3.216,3.216,0,0,0,1.062-.159,2.034,2.034,0,0,0,.759-.451,1.886,1.886,0,0,0,.456-.7,2.537,2.537,0,0,0,.154-.907,2.254,2.254,0,0,0-.6-1.661,2.492,2.492,0,0,0-1.84-.6h-2.471Z"/>
      <path id="Path_11970" data-name="Path 11970" class="cls-1" d="M134.921,9.28h-5.906v4h6.932V15.75H125.938V.821h9.987V3.313h-6.911V6.871h5.906Z"/>
      <path id="Path_11971" data-name="Path 11971" class="cls-1" d="M146.733,9.649h-5.906v6.1h-3.076V.821h9.721V3.313h-6.645V7.168h5.906Z"/>
      <path id="Path_11972" data-name="Path 11972" class="cls-1" d="M154.4,7.547,157.51.821h3.363l-4.9,9.516V15.75h-3.127V10.336l-4.9-9.516h3.374Z"/>
      <path id="Path_11973" data-name="Path 11973" class="cls-1" d="M4.02,26.021,7.855,36.849l3.814-10.828h4.04v14.93H12.623V36.87l.308-7.044L8.9,40.951H6.788L2.769,29.835l.308,7.034v4.081H0V26.021Z"/>
      <path id="Path_11974" data-name="Path 11974" class="cls-1" d="M30.659,33.824A9.517,9.517,0,0,1,30.2,36.9a6.643,6.643,0,0,1-1.3,2.3,5.644,5.644,0,0,1-2,1.451,6.776,6.776,0,0,1-5.147,0A5.749,5.749,0,0,1,19.733,39.2a6.686,6.686,0,0,1-1.317-2.3,9.327,9.327,0,0,1-.472-3.071v-.656a9.423,9.423,0,0,1,.467-3.066,6.761,6.761,0,0,1,1.307-2.317,5.638,5.638,0,0,1,2.01-1.461,6.776,6.776,0,0,1,5.147,0,5.638,5.638,0,0,1,2.01,1.461A6.769,6.769,0,0,1,30.192,30.1a9.436,9.436,0,0,1,.467,3.066Zm-3.117-.677a6.283,6.283,0,0,0-.841-3.568,2.969,2.969,0,0,0-4.8,0,6.283,6.283,0,0,0-.841,3.568v.677a8.673,8.673,0,0,0,.221,2.066,4.6,4.6,0,0,0,.636,1.508,2.759,2.759,0,0,0,1.02.923,2.971,2.971,0,0,0,1.384.313,2.708,2.708,0,0,0,2.389-1.23,6.4,6.4,0,0,0,.831-3.579Z"/>
      <path id="Path_11975" data-name="Path 11975" class="cls-1" d="M45.035,40.951H41.959l-5.988-9.823v9.823H32.895V26.021h3.076l6,9.844V26.021h3.066Z"/>
      <path id="Path_11976" data-name="Path 11976" class="cls-1" d="M58.663,28.513H54.089V40.951H51.013V28.513H46.5V26.021H58.663Z"/>
      <path id="Path_11977" data-name="Path 11977" class="cls-1" d="M67.614,37.875H62.221L61.2,40.951H57.924l5.558-14.93h2.851l5.588,14.93H68.65Zm-4.563-2.492h3.732l-1.876-5.588Z"/>
      <path id="Path_11978" data-name="Path 11978" class="cls-1" d="M76.576,38.479H84.1v2.471H72.731v-1.8l7.383-10.633H72.741V26.021h11.2v1.764Z"/>
      <path id="Path_11979" data-name="Path 11979" class="cls-1" d="M97.34,26.021v9.854a5.672,5.672,0,0,1-.431,2.282,4.624,4.624,0,0,1-1.189,1.656,5.051,5.051,0,0,1-1.81,1,7.965,7.965,0,0,1-4.594,0,5.045,5.045,0,0,1-1.81-1,4.565,4.565,0,0,1-1.184-1.656,5.724,5.724,0,0,1-.426-2.282V26.021h3.076v9.854a2.845,2.845,0,0,0,.7,2.138,3.148,3.148,0,0,0,3.887,0,2.873,2.873,0,0,0,.692-2.138V26.021Z"/>
    </g>
    <path id="Path_11980" data-name="Path 11980" class="cls-1" d="M203.368,6.347l.021.021a21.671,21.671,0,0,1,.1,30.5l-.12.12a21.667,21.667,0,0,1-30.625.021l-.021-.021a21.667,21.667,0,0,1,0-30.646l.12-.12a21.67,21.67,0,0,1,30.526.12Z"/>
    <path id="Path_11981" data-name="Path 11981" class="cls-2" d="M203.368,6.347a21.67,21.67,0,0,0-30.526-.12L188.165,21.55l.021.021,15.3,15.3a21.671,21.671,0,0,0-.1-30.5Z"/>
    <path id="Path_11982" data-name="Path 11982" class="cls-3" d="M172.722,36.993,188.165,21.55l15.2-15.2.021.021a21.671,21.671,0,0,1,.1,30.5l-.12.12a21.668,21.668,0,0,1-30.625.021Z"/>
    <path id="Path_11983" data-name="Path 11983" class="cls-4" d="M172.842,6.227l30.646,30.646-.12.12a21.668,21.668,0,0,1-30.625.021l-.021-.021a21.667,21.667,0,0,1,0-30.646Z"/>
    <path id="Path_11984" data-name="Path 11984" class="cls-5" d="M172.842,6.227l15.344,15.344L172.743,37.014l-.021-.021a21.667,21.667,0,0,1,0-30.646Z"/>
  </g>
</svg>
