<svg id="grunt" xmlns="http://www.w3.org/2000/svg" viewBox="0 0 277 277">
  <defs>
    <style>
      .cls-1, .cls-3, .cls-5 {
        fill: #666;
      }

      .cls-2, .cls-4 {
        fill: #2d8bea;
      }

      .cls-3 {
        font-size: 49px;
      }

      .cls-3, .cls-4, .cls-5 {
        font-family: Roboto-Regular, Roboto;
      }

      .cls-4 {
        font-size: 39px;
        letter-spacing: -0.01em;
      }

      .cls-5 {
        font-size: 11px;
      }

      .cls-6 {
        letter-spacing: -0.01em;
      }
    </style>
  </defs>
  <g id="Warstwa_7" data-name="Warstwa 7">
    <path id="Path_10400" data-name="Path 10400" class="cls-1" d="M274.428,2.572v257.3a14.571,14.571,0,0,1-14.555,14.555H2.572V17.149A14.593,14.593,0,0,1,17.149,2.572H274.428M277,0H17.149A17.2,17.2,0,0,0,0,17.149V277H259.873A17.127,17.127,0,0,0,277,259.873V0Z"/>
  </g>
  <g id="Kształt_4" data-name="Kształt 4" transform="translate(45.94 224.726)">
    <g id="Kształt_4-2" data-name="Kształt 4">
      <rect id="Rectangle_1461" data-name="Rectangle 1461" class="cls-2" width="185.12" height="0.726"/>
    </g>
  </g>
  <g id="Retro" transform="translate(51.907 54.817)">
    <text id="RETRO-2" data-name="RETRO" class="cls-3" transform="translate(0 47)"><tspan x="0" y="0">RETRO</tspan></text>
  </g>
  <g id="fuga" transform="translate(51.907 99.621)">
    <text id="GRUNT-2" data-name="GRUNT" class="cls-4" transform="translate(0 37)"><tspan x="0" y="0">GRU</tspan><tspan y="0">NT</tspan></text>
  </g>
  <g id="stanowi_dedykowany_produkt_który_zalecamy_do_spoinowania_płyte" data-name="stanowi dedykowany produkt, który zalecamy do spoinowania płyte" transform="translate(51.907 151.291)">
    <text id="ogranicza_i_wyrównuje_chłonność_oraz_wzmacnia_podłoże_pod_położenie_płytek_ceglanych" data-name="ogranicza i wyrównuje 
chłonność, oraz wzmacnia 
podłoże pod położenie płytek 
ceglanych" class="cls-5" transform="translate(0 10)"><tspan x="0" y="0">og</tspan><tspan class="cls-6" y="0">r</tspan><tspan y="0">anicza i wyrównuje </tspan><tspan x="0" y="13">chłonność, o</tspan><tspan class="cls-6" y="13">r</tspan><tspan y="13">az wzmacnia </tspan><tspan x="0" y="26">podłoże pod położenie płytek </tspan><tspan x="0" y="39">ceglanych</tspan></text>
  </g>
</svg>
